[gd_scene load_steps=7 format=2]

[ext_resource path="res://texturas/fondo.png" type="Texture" id=1]
[ext_resource path="res://texturas/c3567570fdc3437d7309d2a639f1e303c87d51f5.jpg" type="Texture" id=2]
[ext_resource path="res://scripts/inicio.gd" type="Script" id=3]
[ext_resource path="res://SFX/movimiento_astronauta.ogg" type="AudioStream" id=4]

[sub_resource type="Animation" id=1]
length = 0.001
tracks/0/type = "value"
tracks/0/path = NodePath("Light2D:position")
tracks/0/interp = 1
tracks/0/loop_wrap = true
tracks/0/imported = false
tracks/0/enabled = true
tracks/0/keys = {
"times": PoolRealArray( 0 ),
"transitions": PoolRealArray( 1 ),
"update": 0,
"values": [ Vector2( 1279, 170 ) ]
}
tracks/1/type = "value"
tracks/1/path = NodePath("Marca1:modulate")
tracks/1/interp = 1
tracks/1/loop_wrap = true
tracks/1/imported = false
tracks/1/enabled = true
tracks/1/keys = {
"times": PoolRealArray( 0 ),
"transitions": PoolRealArray( 1 ),
"update": 0,
"values": [ Color( 1, 1, 1, 1 ) ]
}
tracks/2/type = "value"
tracks/2/path = NodePath("audio:volume_db")
tracks/2/interp = 1
tracks/2/loop_wrap = true
tracks/2/imported = false
tracks/2/enabled = true
tracks/2/keys = {
"times": PoolRealArray( 0 ),
"transitions": PoolRealArray( 1 ),
"update": 0,
"values": [ 1.0 ]
}

[sub_resource type="Animation" id=2]
resource_name = "luz"
length = 5.0
step = 0.5
tracks/0/type = "value"
tracks/0/path = NodePath("Light2D:position")
tracks/0/interp = 1
tracks/0/loop_wrap = true
tracks/0/imported = false
tracks/0/enabled = true
tracks/0/keys = {
"times": PoolRealArray( 0, 2 ),
"transitions": PoolRealArray( 1, 1 ),
"update": 0,
"values": [ Vector2( -435, 170 ), Vector2( 1279, 170 ) ]
}
tracks/1/type = "value"
tracks/1/path = NodePath("Marca1:modulate")
tracks/1/interp = 1
tracks/1/loop_wrap = true
tracks/1/imported = false
tracks/1/enabled = true
tracks/1/keys = {
"times": PoolRealArray( 0, 0.5, 2, 3, 4, 5 ),
"transitions": PoolRealArray( 1, 1, 1, 1, 1, 1 ),
"update": 0,
"values": [ Color( 0, 0, 0, 1 ), Color( 0.0352941, 0.0352941, 0.0352941, 1 ), Color( 0.0352941, 0.0352941, 0.0352941, 1 ), Color( 1, 1, 1, 1 ), Color( 1, 1, 1, 1 ), Color( 0, 0, 0, 1 ) ]
}
tracks/2/type = "method"
tracks/2/path = NodePath(".")
tracks/2/interp = 1
tracks/2/loop_wrap = true
tracks/2/imported = false
tracks/2/enabled = true
tracks/2/keys = {
"times": PoolRealArray( 5 ),
"transitions": PoolRealArray( 1 ),
"values": [ {
"args": [  ],
"method": "cambiar"
} ]
}
tracks/3/type = "value"
tracks/3/path = NodePath("audio:volume_db")
tracks/3/interp = 1
tracks/3/loop_wrap = true
tracks/3/imported = false
tracks/3/enabled = true
tracks/3/keys = {
"times": PoolRealArray( 0, 1, 3.5, 5 ),
"transitions": PoolRealArray( 1, 1, 1, 1 ),
"update": 0,
"values": [ -70.0, 1.0, 1.0, -70.0 ]
}

[node name="inicio" type="Node2D"]
script = ExtResource( 3 )

[node name="Marca1" type="Sprite" parent="."]
texture = ExtResource( 1 )
centered = false

[node name="Light2D" type="Light2D" parent="."]
position = Vector2( 1279, 170 )
texture = ExtResource( 2 )
offset = Vector2( 0, 500 )
texture_scale = 5.0
energy = 16.0

[node name="AnimationPlayer" type="AnimationPlayer" parent="."]
autoplay = "luz"
anims/RESET = SubResource( 1 )
anims/luz = SubResource( 2 )

[node name="audio" type="AudioStreamPlayer" parent="."]
stream = ExtResource( 4 )
volume_db = 1.0
autoplay = true
bus = "pause"
